Hasil pengolahan nilai: 
=======================================================================================
Pengelompokkan nilai dengan acuan nilai 9 beserta jumlah siswa tiap nilai 
=======================================================================================
Daftar nilai yang kurang dari 9
Nilai 5 berjumlah 1
Nilai 6 berjumlah 2
Nilai 7 berjumlah 62
Nilai 8 berjumlah 42


Jumlah siswa yang bernilai 9 adalah 50

Daftar nilai yang lebih dari 9
Nilai 10 berjumlah 41


